Augment data with information from a flexsurv model object — augment.flexsurvreg • flexsurv
…
.se.fit Standard errors of fitted values

.resid Residuals (not present if newdata specified)

    Details

    If neither of data or newdata are specified, then model.frame(x) will be used. It is worth noting that model.frame(x) will include a Surv object and not the original time-to-event variables used when fitting the flexsurvreg object. If the original data is desired, specify data.

    Examples

fit <- flexsurvreg(formula = Surv(futime, fustat) ~ age, data = ovarian, dist = "exp")
augment(fit, data = ovarian)
#> # A tibble: 26 × 9
#>    futime fustat   age resid.ds    rx ecog.ps .pred_time .std_error  .resid
#>     <dbl>  <dbl> <dbl>    <dbl> <dbl>   <dbl>      <dbl>      <dbl>   <dbl>
#>  1     59      1  72.3        2     1       1       213.       113.  -154. 
#>  2    115      1  74.5        2     1       1       165.       103.   -49.8
#>  3    156      1  66.5        2     1       2       427.       149.  -271. 
#>  4    421      0  53.4        2     2       1      2016.       879. -1595. 
#>  5    431      1  50.3        2     1       1      2886.      1576. -2455. 
#>  6    448      0  56.4        1     1       2      1402.       495.  -954. 
#>  7    464      1  56.9        2     2       2      1320.       452.  -856. 
#>  8    475      1  59.9        2     2       2       934.       281.  -459. 
#>  9    477      0  64.2        2     1       1       560.       174.   -82.8
#> 10    563      1  55.2        1     2       2      1626.       623. -1063. 
#> # ℹ 16 more rows
…
