…
[`summary.flexsurvreg`](http://chjackson.github.io/flexsurv-dev/reference/summary.flexsurvreg.md),
[`residuals.flexsurvreg`](http://chjackson.github.io/flexsurv-dev/reference/residuals.flexsurvreg.md)

## Author

Matthew T. Warkentin (<https://github.com/mattwarkentin>)

## Examples

``` r
fitg <- flexsurvreg(formula = Surv(futime, fustat) ~ age, data = ovarian, dist = "gengamma")

## Simplest prediction: mean or median, for covariates defined by original dataset
predict(fitg)
#> # A tibble: 26 × 1
#>    .pred_time
#>         <dbl>
#>  1       246.
#>  2       204.
#>  3       411.
#>  4      1295.
#>  5      1687.
#>  6       990.
#>  7       947.
#>  8       734.
#>  9       503.
#> 10      1105.
#> # ℹ 16 more rows
predict(fitg, type = "quantile", p = 0.5)
#> # A tibble: 26 × 2
#>    .quantile .pred_quantile
#>        <dbl>          <dbl>
#>  1       0.5           194.
#>  2       0.5           161.
#>  3       0.5           325.
#>  4       0.5          1022.
#>  5       0.5          1331.
#>  6       0.5           781.
#>  7       0.5           747.
#>  8       0.5           579.
#>  9       0.5           397.
#> 10       0.5           872.
#> # ℹ 16 more rows
…
## Predict multiple quantiles and unnest
require(tidyr)
#> Loading required package: tidyr
pr <- predict(fitg, type = "survival", times = c(600, 800))
tidyr::unnest(pr, .pred)
#> # A tibble: 52 × 2
#>    .eval_time .pred_survival
#>         <dbl>          <dbl>
#>  1        600        0.0548 
#>  2        800        0.0202 
#>  3        600        0.0292 
#>  4        800        0.00926
#>  5        600        0.200  
#>  6        800        0.104  
#>  7        600        0.751  
#>  8        800        0.624  
#>  9        600        0.841  
#> 10        800        0.742  
#> # ℹ 42 more rows
```
