Marginal survival and hazards of fitted flexsurvreg models — standsurv • flexsurv
…
## Fit a Weibull flexsurv model with group and age as covariates
weib_age <- flexsurvreg(Surv(recyrs, censrec) ~ group+age, data=newbc, 
                       dist="weibull")
                       
## Calculate standardized survival and the difference in standardized survival
## for the three levels of group across a grid of survival times                        
standsurv_weib_age <- standsurv(weib_age, 
                                           at = list(list(group="Good"), 
                                                     list(group="Medium"), 
                                                     list(group="Poor")), 
                                           t=seq(0,7, length.out=100),
                                           contrast = "difference", ci=FALSE)
standsurv_weib_age
#> # A tibble: 100 × 6
#>      time   at1   at2   at3 contrast2_1 contrast3_1
#>     <dbl> <dbl> <dbl> <dbl>       <dbl>       <dbl>
#>  1 0      1     1     1         0           0      
#>  2 0.0707 0.999 0.998 0.996    -0.00111    -0.00353
#>  3 0.141  0.998 0.995 0.988    -0.00293    -0.00931
#>  4 0.212  0.996 0.991 0.980    -0.00517    -0.0164 
#>  5 0.283  0.994 0.986 0.970    -0.00772    -0.0244 
#>  6 0.354  0.992 0.981 0.959    -0.0105     -0.0331 
#>  7 0.424  0.989 0.976 0.947    -0.0135     -0.0425 
#>  8 0.495  0.987 0.970 0.935    -0.0167     -0.0523 
#>  9 0.566  0.984 0.964 0.922    -0.0201     -0.0626 
#> 10 0.636  0.981 0.958 0.908    -0.0236     -0.0732 
#> # ℹ 90 more rows
…
