Calculating standardized survival measures in flexsurv • flexsurv
…
ss.weibull.sep.surv <- standsurv(model.weibull.sep,
                                             type = "survival",
                                             at = list(list(group2 = "Good"),
                                                       list(group2 = "Medium/Poor")))
ss.weibull.sep.surv
#> # A tibble: 574 × 3
#>      time   at1   at2
#>     <dbl> <dbl> <dbl>
#>  1 0.0219 1.00  0.999
#>  2 0.0411 1.00  0.998
#>  3 0.0438 1.00  0.997
#>  4 0.0466 1.00  0.997
#>  5 0.0493 1.00  0.997
#>  6 0.0795 1.00  0.994
#>  7 0.115  0.999 0.991
#>  8 0.126  0.999 0.990
#>  9 0.156  0.999 0.987
#> 10 0.173  0.999 0.985
#> # ℹ 564 more rows
…
